3 Section 4.4.2 Evaluation of Treatment Effects From a Program With a Group Randomization Design (SD & PS) | R Code for Propensity Score Analysis
…
## tm3: icstsc_ & robust clustering
broom::tidy(lmtest::coeftest(tm1, vcov = vcovCL, cluster = d1$school))

## # A tibble: 33 x 5
##    term         estimate std.error statistic   p.value
##    <chr>           <dbl>     <dbl>     <dbl>     <dbl>
##  1 X.Intercept.   49.9     14.3        3.49  0.000476 
##  2 AYP05Cs        -0.350    0.103     -3.39  0.000694 
##  3 pmin05         -0.146    0.0513    -2.83  0.00460  
##  4 freel          -0.122    0.0523    -2.34  0.0195   
##  5 puptch05       -1.21     0.282     -4.30  0.0000172
##  6 age             0.361    0.140      2.58  0.00994  
##  7 Femalei         0.112    0.115      0.974 0.330    
##  8 Black          -0.702    0.412     -1.71  0.0881   
##  9 White          -1.12     0.542     -2.06  0.0390   
## 10 Hisp           -0.732    0.185     -3.95  0.0000766
## # ... with 23 more rows

## tm4: cccpros_ & robust clustering
broom::tidy(lmtest::coeftest(tm2, vcov = vcovCL, cluster = d1$school))

## # A tibble: 33 x 5
##    term         estimate std.error statistic   p.value
##    <chr>           <dbl>     <dbl>     <dbl>     <dbl>
##  1 X.Intercept.   50.6     15.0         3.38 0.000724 
##  2 AYP05Cs        -0.353    0.107      -3.30 0.000978 
##  3 pmin05         -0.150    0.0545     -2.75 0.00595  
##  4 freel          -0.122    0.0525     -2.32 0.0204   
##  5 puptch05       -1.22     0.297      -4.12 0.0000381
##  6 age             0.334    0.139       2.40 0.0162   
##  7 Femalei         0.122    0.101       1.20 0.229    
##  8 Black          -0.761    0.386      -1.97 0.0488   
##  9 White          -1.19     0.517      -2.29 0.0218   
## 10 Hisp           -0.725    0.173      -4.20 0.0000270
## # ... with 23 more rows
…
