13 Section 8.4.2 Efficacy Subset & Matching Estimators (PS) | R Code for Propensity Score Analysis
…
# Replicates 21 Stata programs (dv_g5aca_tot to dv_g5scom_hi)
df.m8 <- get_matching_models(data = df.f2, f = "g5aca", dv = "icsacach", cov = X_icsacach)
df.m9 <- get_matching_models(data = df.f2, f = "g5agg", dv = "icsaggch", cov = X_icsaggch)
df.m10 <- get_matching_models(data = df.f2, f = "g5emrg", dv = "cceregch", cov = X_cceregch)
df.m11 <- get_matching_models(data = df.f2, f = "g5int", dv = "icsintch", cov = X_icsintch)
df.m12 <- get_matching_models(data = df.f2, f = "g5pros", dv = "ccprosch", cov = X_ccprosch)
df.m13 <- get_matching_models(data = df.f2, f = "g5ragg", dv = "raggrch", cov = X_raggrch)
df.m14 <- get_matching_models(data = df.f2, f = "g5scom", dv = "ccscomch", cov = X_ccscomch)

# Each tibble above contains 50 (imputed datasets) * 3 (treatment variable) = 150 ATTs
df.m1

## # A tibble: 50 x 6
##    filename filename2 data    g4aca_icsacach_~ g4aca_icsacach_~ g4aca_icsacach_~
##    <chr>    <chr>     <list>  <list>           <list>           <list>          
##  1 g4aca    g4aca1    <tibbl~ <tibble [1 x 3]> <tibble [1 x 3]> <tibble [1 x 3]>
##  2 g4aca    g4aca2    <tibbl~ <tibble [1 x 3]> <tibble [1 x 3]> <tibble [1 x 3]>
##  3 g4aca    g4aca3    <tibbl~ <tibble [1 x 3]> <tibble [1 x 3]> <tibble [1 x 3]>
##  4 g4aca    g4aca4    <tibbl~ <tibble [1 x 3]> <tibble [1 x 3]> <tibble [1 x 3]>
##  5 g4aca    g4aca5    <tibbl~ <tibble [1 x 3]> <tibble [1 x 3]> <tibble [1 x 3]>
##  6 g4aca    g4aca6    <tibbl~ <tibble [1 x 3]> <tibble [1 x 3]> <tibble [1 x 3]>
##  7 g4aca    g4aca7    <tibbl~ <tibble [1 x 3]> <tibble [1 x 3]> <tibble [1 x 3]>
##  8 g4aca    g4aca8    <tibbl~ <tibble [1 x 3]> <tibble [1 x 3]> <tibble [1 x 3]>
##  9 g4aca    g4aca9    <tibbl~ <tibble [1 x 3]> <tibble [1 x 3]> <tibble [1 x 3]>
## 10 g4aca    g4aca10   <tibbl~ <tibble [1 x 3]> <tibble [1 x 3]> <tibble [1 x 3]>
## # ... with 40 more rows
…
