14 Section 10.6.1 Modeling Doses of Treatment (SD & PS) | R Code for Propensity Score Analysis
…
# Function to replicate Stata tab
tab <- function(df, var) {
  df %>%
    group_by({{ var }})  %>%
    summarise(n = n(), .groups = "drop")  %>%
    mutate(Percent = 100 * round((n / sum(n)), 4),
           Cum. = 100 * round(cumsum(n / sum(n)),4)) %>% 
    rename(Freq. = n)
}

14.2 Create Treatment Variable

tab(d, k_adc)

## # A tibble: 51 x 4
##    k_adc Freq. Percent  Cum.
##    <dbl> <int>   <dbl> <dbl>
##  1  0      729   72.7   72.7
##  2  7.69    25    2.49  75.2
##  3  8.33    10    1     76.2
##  4  9.09     5    0.5   76.7
##  5 10        4    0.4   77.1
##  6 11.1      8    0.8   77.9
##  7 12.5      1    0.1   78.0
##  8 14.3      1    0.1   78.1
##  9 15.4     15    1.5   79.6
## 10 16.7      4    0.4   80.0
## # ... with 41 more rows
…
